{
    "plans": [{
        "id": "0.0.0.1 /plan 10000109343 0",
        "name": "Promo - Veteran - All Access - 1mo",
        "descriptor": "SIR_AUD_ALLACCESS",
        "marketType": "self-pay:standard",
        "termLength": 1,
        "quotes": [{
            "type": "CURRENT_QUOTE",
            "pricePerMonthLineItem": {
                "description": "Amount",
                "price": 15.74
            },
            "serviceQuoteLineItem": {
                "description": "Amount",
                "price": 15.74
            },
            "taxQuoteLineItem": {
                "description": "Tax Amount",
                "price": 0.00
            },
            "feeQuoteLineItems": [{
                "description": "U.S. Music Royalty Fee",
                "price": 3.01
            }],
            "total": {
                "description": "Total Amount",
                "price": 18.75
            },
            "startDate": 1577941200,
            "endDate": 1580619600
        }, {
            "type": "FUTURE_QUOTE",
            "pricePerMonthLineItem": {
                "description": "Amount",
                "price": 15.74
            },
            "serviceQuoteLineItem": {
                "description": "Amount",
                "price": 15.74
            },
            "taxQuoteLineItem": {
                "description": "Tax Amount",
                "price": 0.00
            },
            "feeQuoteLineItems": [{
                "description": "U.S. Music Royalty Fee",
                "price": 3.01
            }],
            "total": {
                "description": "Total Amount",
                "price": 18.75
            },
            "startDate": 1577941200,
            "endDate": 1580619600
        }, {
            "type": "RENEWAL_QUOTE",
            "pricePerMonthLineItem": {
                "description": "Amount",
                "price": 15.74
            },
            "serviceQuoteLineItem": {
                "description": "Amount",
                "price": 15.74
            },
            "taxQuoteLineItem": {
                "description": "Tax Amount",
                "price": 0.00
            },
            "feeQuoteLineItems": [{
                "description": "U.S. Music Royalty Fee",
                "price": 3.01
            }],
            "total": {
                "description": "Total Amount",
                "price": 18.75
            },
            "startDate": 1577941200,
            "endDate": 1580619600
        }],
        "eligibleForMrd": false
    },{
        "id": "0.0.0.1 /plan 10000107167 0",
        "name": "Promo - Veteran - Select - 1mo",
        "descriptor": "SIR_AUD_EVT",
        "marketType": "self-pay:standard",
        "termLength": 1,
        "quotes": [{
            "type": "CURRENT_QUOTE",
            "pricePerMonthLineItem": {
                "description": "Amount",
                "price": 11.99
            },
            "serviceQuoteLineItem": {
                "description": "Amount",
                "price": 11.99
            },
            "taxQuoteLineItem": {
                "description": "Tax Amount",
                "price": 0.00
            },
            "feeQuoteLineItems": [{
                "description": "U.S. Music Royalty Fee",
                "price": 2.29
            }],
            "total": {
                "description": "Total Amount",
                "price": 14.28
            },
            "startDate": 1577941200,
            "endDate": 1580619600
        }, {
            "type": "FUTURE_QUOTE",
            "pricePerMonthLineItem": {
                "description": "Amount",
                "price": 11.99
            },
            "serviceQuoteLineItem": {
                "description": "Amount",
                "price": 11.99
            },
            "taxQuoteLineItem": {
                "description": "Tax Amount",
                "price": 0.00
            },
            "feeQuoteLineItems": [{
                "description": "U.S. Music Royalty Fee",
                "price": 2.29
            }],
            "total": {
                "description": "Total Amount",
                "price": 14.28
            },
            "startDate": 1577941200,
            "endDate": 1580619600
        }, {
            "type": "RENEWAL_QUOTE",
            "pricePerMonthLineItem": {
                "description": "Amount",
                "price": 11.99
            },
            "serviceQuoteLineItem": {
                "description": "Amount",
                "price": 11.99
            },
            "taxQuoteLineItem": {
                "description": "Tax Amount",
                "price": 0.00
            },
            "feeQuoteLineItems": [{
                "description": "U.S. Music Royalty Fee",
                "price": 2.29
            }],
            "total": {
                "description": "Total Amount",
                "price": 14.28
            },
            "startDate": 1577941200,
            "endDate": 1580619600
        }],
        "eligibleForMrd": false
    }]
}
