{
    "plans": [{
            "id": "0.0.0.1 /plan 10000107143 0",
            "name": "Internet Radio - 12mo - NewSxir Promotion",
            "descriptor": "SIR_IP_NSX",
            "marketType": "self-pay:introductory",
            "termLength": 12,
            "quotes": [{
                "type": "CURRENT_QUOTE",
                "pricePerMonthLineItem": {
                    "description": "Amount",
                    "price": 9.99
                },
                "serviceQuoteLineItem": {
                    "description": "Amount",
                    "price": 9.99
                },
                "taxQuoteLineItem": {
                    "description": "Tax Amount",
                    "price": 0.00
                },
                "feeQuoteLineItems": [{
                    "description": "U.S. Music Royalty Fee",
                    "price": 0.88
                }],
                "total": {
                    "description": "Total Amount",
                    "price": 10.87
                },
                "startDate": 1540368000000,
                "endDate": 1571904000000
            }, {
                "type": "FUTURE_QUOTE",
                "pricePerMonthLineItem": {
                    "description": "Amount",
                    "price": 9.99
                },
                "serviceQuoteLineItem": {
                    "description": "Amount",
                    "price": 9.99
                },
                "taxQuoteLineItem": {
                    "description": "Tax Amount",
                    "price": 0.00
                },
                "feeQuoteLineItems": [{
                    "description": "U.S. Music Royalty Fee",
                    "price": 0.88
                }],
                "total": {
                    "description": "Total Amount",
                    "price": 10.87
                },
                "startDate": 1548324000000,
                "endDate": 1556092800000
            }, {
                "type": "RENEWAL_QUOTE",
                "pricePerMonthLineItem": {
                    "description": "Amount",
                    "price": 15.99
                },
                "serviceQuoteLineItem": {
                    "description": "Amount",
                    "price": 15.99
                },
                "taxQuoteLineItem": {
                    "description": "Tax Amount",
                    "price": 0.00
                },
                "feeQuoteLineItems": [{
                    "description": "U.S. Music Royalty Fee",
                    "price": 1.41
                }],
                "total": {
                    "description": "Total Amount",
                    "price": 17.40
                },
                "startDate": 1548324000000,
                "endDate": 1556092800000
            }],
            "eligibleForMrd": false
        }, {
            "id": "0.0.0.1 /plan 10000107143 0",
            "name": "Internet Radio - 12mo - Full Price",
            "descriptor": "SIR_IP_NSX",
            "marketType": "self-pay:standard",
            "termLength": 12,
            "quotes": [{
                "type": "CURRENT_QUOTE",
                "pricePerMonthLineItem": {
                    "description": "Amount",
                    "price": 15.99
                },
                "serviceQuoteLineItem": {
                    "description": "Amount",
                    "price": 15.99
                },
                "taxQuoteLineItem": {
                    "description": "Tax Amount",
                    "price": 0.00
                },
                "feeQuoteLineItems": [{
                    "description": "U.S. Music Royalty Fee",
                    "price": 1.41
                }],
                "total": {
                    "description": "Total Amount",
                    "price": 17.41
                },
                "startDate": 1540368000000,
                "endDate": 1556092800000
            }, {
                "type": "RENEWAL_QUOTE",
                "pricePerMonthLineItem": {
                    "description": "Amount",
                    "price": 15.99
                },
                "serviceQuoteLineItem": {
                    "description": "Amount",
                    "price": 15.99
                },
                "taxQuoteLineItem": {
                    "description": "Tax Amount",
                    "price": 0.00
                },
                "feeQuoteLineItems": [{
                    "description": "U.S. Music Royalty Fee",
                    "price": 1.41
                }],
                "total": {
                    "description": "Total Amount",
                    "price": 17.41
                },
                "startDate": 1556092800000,
                "endDate": 1571904000000
            }],
            "eligibleForMrd": false
        }

    ]
}