[
    {
       "id":1,

       "planName":"SiriusXM Gold Streaming",
       "offerTitle":"SiriusXM Gold Streaming (100+ Channels)",
       "planExclusiveness":"100+ Channels",
       "offerDetailsTitle":"6 months offer at $5.99/mo",

       "price":"$5.99",
       "regularPrice":"$16.99/mo",
       "duration":"6",
       "terms":"mo",

       "offerDetails": {
            "promoMonthyRate": "$5.99",
            "sixMonthsSaving":"$66",
            "normalMonthlyRate": "$16.99",
            "contactNumber": "1-866-635-2349"
        },

       "promoFeesAndTaxes":"$6.12",
       "promoMusicRoyaltyFee":"4.41",
       "promoLocalTaxes":"$2.92",
       "promoTotalDueToday":"$0.00",

       "renewalMonthlyPlan":"$16.99",
       "renewalMusicRoyaltyFee":"2.01",
       "renewalLocalTaxes":"$1.11",
       "renewalCreditAndAjdustments":"-$12.03",
       "renewalTotalDueToday":"$1.84",
       "renewalDueDate":"12/31/2018",

       "details":[
            {
                "id":111,
                "detailDesc":"Listen up to 100+ Channels",
                "sortOrder":1
            },
            {
                "id":112,
                "detailDesc":"Access On Demand content",
                "sortOrder":2
            },
            {
                "id":113,
                "detailDesc":"Watch SiriusXM video",
                "sortOrder":3
            },
            {
                "id":114,
                "detailDesc":"On the app and connected devices",
                "sortOrder":4
            }
       ],
       "promoStartDate":"2018-07-27T17:32:28.345Z",
       "promoEndDate":"2018-09-27T17:32:28.345Z",
       "isActive":true,
       "createdAt":"2018-07-27T17:32:28.345Z",
       "updatedAt":null
    },
    {
       "id":2,

       "planName":"SiriusXM Premier Streaming",
       "offerTitle":"SiriusXM Premier Streaming (200+ Channels)",
       "planExclusiveness":"200+ Channels",
       "offerDetailsTitle":"6 months offer at $6.99/mo",

       "price":"$6.99",
       "regularPrice":"$19.99/mo",
       "duration":"6",
       "terms":"mo",

       "offerDetails": {
           "promoMonthyRate": "$6.99",
           "sixMonthsSaving":"$76",
           "normalMonthlyRate": "$19.99",
           "contactNumber": "1-866-635-2349"
       },

       "promoFeesAndTaxes":"$7.43",
       "promoMusicRoyaltyFee":"4.41",
       "promoLocalTaxes":"$3.12",
       "promoTotalDueToday":"-$18.71",

       "renewalMonthlyPlan":"$19.99",
       "renewalMusicRoyaltyFee":"2.15",
       "renewalLocalTaxes":"$1.18",
       "renewalCreditAndAjdustments":"-$15.11",
       "renewalTotalDueToday":"$1.55",
       "renewalDueDate":"12/31/2018",

       "details":[
            {
                "id":111,
                "detailDesc":"Listen up to 200+ Channels",
                "sortOrder":1
            },
            {
                "id":112,
                "detailDesc":"Access On Demand content",
                "sortOrder":2
            },
            {
                "id":113,
                "detailDesc":"Watch SiriusXM video",
                "sortOrder":3
            },
            {
                "id":114,
                "detailDesc":"On the app and connected devices",
                "sortOrder":4
            }
       ],
       "promoStartDate":"2018-07-27T17:32:28.345Z",
       "promoEndDate":"2018-09-27T17:32:28.345Z",
       "isActive":true,
       "createdAt":"2018-07-27T17:32:28.345Z",
       "updatedAt":null
    }
 ]